capitulo-ii
…
data(flights)

## -------- Sumarização por Companhia e Período via `summarise()` --------- ##

flights_summary     <- flights %>%
                          group_by(carrier, month) %>%
                             summarise(numero_voos = n(),
                                       media_atraso = mean(dep_delay, na.rm = TRUE),
                                       mediana_atraso = median(dep_delay, na.rm = TRUE),
                                       proporcao_atrasos = mean(dep_delay > 0, na.rm = TRUE))

flights_summary

# A tibble: 185 × 6
# Groups:   carrier [16]
   carrier month numero_voos media_atraso mediana_atraso proporcao_atrasos
   <chr>   <int>       <int>        <dbl>          <dbl>             <dbl>
 1 9E          1        1573        16.9              -2             0.383
 2 9E          2        1459        16.5              -3             0.378
 3 9E          3        1627        13.4              -3             0.355
 4 9E          4        1511        13.6              -3             0.335
 5 9E          5        1462        22.7              -1             0.462
 6 9E          6        1437        29.0               3             0.535
 7 9E          7        1494        31.4               3             0.549
 8 9E          8        1456        17.3               0             0.464
 9 9E          9        1540         7.75             -4             0.304
10 9E         10        1673         9.33             -3             0.357
# ℹ 175 more rows
…
